 employeefn | employeeln | bossfn  |  bossln  
------------+------------+---------+----------
 Andrew     | Adams      |         | 
 Nancy      | Edwards    | Andrew  | Adams
 Jane       | Peacock    | Nancy   | Edwards
 Margaret   | Park       | Nancy   | Edwards
 Steve      | Johnson    | Nancy   | Edwards
 Michael    | Mitchell   | Andrew  | Adams
 Robert     | King       | Michael | Mitchell
 Laura      | Callahan   | Michael | Mitchell
(8 rows)

