 month | total  
-------+--------
     1 |  32.67
     2 |  12.87
     3 |  17.82
     4 |  15.84
     5 |  25.74
     6 |  14.85
     7 |  18.83
     8 |  35.73
     9 |  29.85
    10 |  16.86
    11 |  17.82
    12 |   9.90
       | 248.78
(13 rows)

